[
	{
		"obr_report_id": "1",
		"name": "Powerbar",
		"device_params": "no_params",
		"format_params": "",
		"show_graph": false,
		"network_guid": false,
		"can_show": true,
		"is_device_report": false,
		"is_idpu": true
	},
	{
		"obr_report_id": "2",
		"name": "Power Availability",
		"device_params": "no_params",
		"format_params": "pdf_or_xls",
		"show_graph": false,
		"network_guid": false,
		"can_show": true,
		"is_device_report": false,
		"is_idpu": true
	},
	{
		"obr_report_id": "250685",
		"name": "Availability",
		"device_params": "no_params",
		"format_params": "pdf_or_xls",
		"show_graph": false,
		"network_guid": true,
		"can_show": true,
		"is_device_report": false,
		"network_guid_dpid": "DP2a",
		"network_guid_id": 12,
		"network_guid_technical_name": "pmEnter value(s) for Network GUID",
		"network_guid_name": "Enter value(s) for Network GUID",
		"company_guid_dpid": "DP6",
		"comapny_guid_id": 6,
		"company_guid_technical_name": "pmEnter value(s) for Organization GUID",
		"company_guid_name": "Enter value(s) for Organization GUID",
		"start_date_dpid": "DP4",
		"start_date_id": 1,
		"start_date_technical_name": "psSelect Start Date",
		"start_date_name": "Select Start Date",
		"end_date_dpid": "DP4",
		"end_date_id": 2,
		"end_date_technical_name": "psSelect End Date",
		"end_date_name": "Select End Date",
		"date_range_dpid": "DP3",
		"date_range_id": 0,
		"date_range_technical_name": "psSelect Date Range",
		"date_range_name": "Select Date Range"
	},
	{
		"obr_report_id": "1829949",
		"name": "Health Report / Device Detail",
		"device_params": "array_of_devices",
		"format_params": "",
		"show_graph": false,
		"network_guid": true,
		"can_show": true,
		"is_device_report": true,
		"network_guid_dpid": "DP39",
		"network_guid_id": 6,
		"network_guid_technical_name": "pmEnter value(s) for System GUID",
		"network_guid_name": "Enter value(s) for System GUID",
		"company_guid_dpid": "DP3",
		"comapny_guid_id": 3,
		"company_guid_technical_name": "pmEnter value(s) for Organization GUID",
		"company_guid_name": "Enter value(s) for Organization GUID",
		"start_date_dpid": "DP1",
		"start_date_id": 1,
		"start_date_technical_name": "psEnter Start Date",
		"start_date_name": "Enter Start Date",
		"end_date_dpid": "DP1",
		"end_date_id": 2,
		"end_date_technical_name": "psEnter End Date",
		"end_date_name": "Enter End Date",
		"global_id_dpid": "DP3",
		"global_id_id": 4,
		"global_id_technical_name": "pmEnter value(s) for GlobalID",
		"global_id_name": "Enter value(s) for GlobalID",
		"date_range_dpid": "DP0",
		"date_range_id": 0,
		"date_range_technical_name": "psSelect Date Range",
		"date_range_name": "Select Date Range"
	},
	{
		"obr_report_id": "7729",
		"name": "Raw Polled Performance",
		"device_params": "single_device",
		"format_params": "",
		"show_graph": false,
		"network_guid": false,
		"can_show": true,
		"is_device_report": true,
		"company_guid_dpid": "DP26",
		"comapny_guid_id": 6,
		"company_guid_technical_name": "pmEnter value(s) for GUID",
		"company_guid_name": "Enter value(s) for GUID",
		"start_date_dpid": "DP25",
		"start_date_id": 1,
		"start_date_technical_name": "psSelect Start Date",
		"start_date_name": "Select Start Date",
		"end_date_dpid": "DP25",
		"end_date_id": 2,
		"end_date_technical_name": "psSelect End Date",
		"end_date_name": "Select End Date",
		"global_id_dpid": "DP26",
		"global_id_id": 5,
		"global_id_technical_name": "pmEnter value(s) for GlobalID",
		"global_id_name": "Enter value(s) for GlobalID",
		"date_range_dpid": "DP24",
		"date_range_id": 0,
		"date_range_technical_name": "psSelect Date Range",
		"date_range_name": "Select Date Range"
	},
	{
		"obr_report_id": "250683",
		"name": "Network Usage",
		"device_params": "no_params",
		"format_params": "",
		"show_graph": false,
		"network_guid": false,
		"can_show": true,
		"is_device_report": false,
		"company_guid_dpid": "DP3",
		"comapny_guid_id": 3,
		"company_guid_technical_name": "pmEnter value(s) for Organization GUID",
		"company_guid_name": "Enter value(s) for Organization GUID",
		"start_date_dpid": "DP1",
		"start_date_id": 1,
		"start_date_technical_name": "psEnter Start Date",
		"start_date_name": "Enter Start Date",
		"end_date_dpid": "DP1",
		"end_date_id": 2,
		"end_date_technical_name": "psEnter End Date",
		"end_date_name": "Enter End Date",
		"date_range_dpid": "DP0",
		"date_range_id": 0,
		"date_range_technical_name": "psSelect Date Range",
		"date_range_name": "Select Date Range",
		"is_idpu": true
	},
	{
		"obr_report_id": "7654",
		"name": "Device Availability",
		"device_params": "no_params",
		"format_params": "pdf_or_xls",
		"show_graph": false,
		"network_guid": false,
		"can_show": true,
		"is_device_report": false,
		"company_guid_dpid": "DP22",
		"comapny_guid_id": 8,
		"company_guid_technical_name": "pmEnter value(s) for GUID",
		"company_guid_name": "Enter value(s) for GUID",
		"start_date_dpid": "DP20",
		"start_date_id": 1,
		"start_date_technical_name": "psSelect Start Date",
		"start_date_name": "Select Start Date",
		"end_date_dpid": "DP20",
		"end_date_id": 2,
		"end_date_technical_name": "psSelect End Date",
		"end_date_name": "Select End Date",
		"global_id_dpid": "DP21",
		"global_id_id": 6,
		"global_id_technical_name": "pmEnter value(s) for GlobalID",
		"global_id_name": "Enter value(s) for Global ID",
		"date_range_dpid": "DP1f",
		"date_range_id": 0,
		"date_range_technical_name": "psSelect Date Range",
		"date_range_name": "Select Date Range"
	},
	{
		"obr_report_id": "250686",
		"name": "Network Availability",
		"device_params": "no_params",
		"format_params": "pdf_or_xls",
		"show_graph": false,
		"network_guid": false,
		"can_show": true,
		"is_device_report": false,
		"company_guid_dpid": "DP2",
		"comapny_guid_id": 3,
		"company_guid_technical_name": "pmEnter value(s) for Organization_GUID",
		"company_guid_name": "Enter value(s) for Organization_GUID",
		"start_date_dpid": "DP1",
		"start_date_id": 1,
		"start_date_technical_name": "psSelect Start Date",
		"start_date_name": "Select Start Date",
		"end_date_dpid": "DP1",
		"end_date_id": 2,
		"end_date_technical_name": "psSelect End Date",
		"end_date_name": "Select End Date",
		"date_range_dpid": "DP0",
		"date_range_id": 0,
		"date_range_technical_name": "psSelect Date Range",
		"date_range_name": "Select Date Range"
	},
	{
		"obr_report_id": "250682",
		"name": "Network Interface",
		"device_params": "array_of_devices",
		"format_params": "",
		"show_graph": false,
		"network_guid": false,
		"can_show": true,
		"is_device_report": true,
		"company_guid_dpid": "DP2c",
		"comapny_guid_id": 4,
		"company_guid_technical_name": "pmEnter value(s) for Organization GUID",
		"company_guid_name": "Enter value(s) for Organization GUID",
		"start_date_dpid": "DP2b",
		"start_date_id": 1,
		"start_date_technical_name": "psSelect Start Date",
		"start_date_name": "Select Start Date",
		"end_date_dpid": "DP2b",
		"end_date_id": 2,
		"end_date_technical_name": "psSelect End Date",
		"end_date_name": "Select End Date",
		"global_id_dpid": "DP2c",
		"global_id_id": 8,
		"global_id_technical_name": "pmEnter value(s) for GLobalID",
		"global_id_name": "Enter value(s) for GLobalID",
		"date_range_dpid": "DP2a",
		"date_range_id": 0,
		"date_range_technical_name": "psSelect Date Range",
		"date_range_name": "Select Date Range"
	},
	{
		"obr_report_id": "293403",
		"name": "Group Availability",
		"device_params": "single_group",
		"format_params": "",
		"show_graph": false,
		"network_guid": true,
		"can_show": true,
		"is_device_report": true,
		"network_guid_dpid": "DP2a",
		"network_guid_id": 11,
		"network_guid_technical_name": "pmEnter value(s) for Network GUID",
		"network_guid_name": "Enter value(s) for Network GUID",
		"company_guid_dpid": "DP6",
		"comapny_guid_id": 5,
		"company_guid_technical_name": "pmEnter value(s) for Organization GUID",
		"company_guid_name": "Enter value(s) for Organization GUID",
		"start_date_dpid": "DP4",
		"start_date_id": 1,
		"start_date_technical_name": "psSelect Start Date",
		"start_date_name": "Select Start Date",
		"end_date_dpid": "DP4",
		"end_date_id": 2,
		"end_date_technical_name": "psSelect End Date",
		"end_date_name": "Select End Date",
		"global_id_dpid": "DP6",
		"global_id_id": 6,
		"global_id_technical_name": "pmEnter value(s) for Global Id",
		"global_id_name": "Enter value(s) for Global Id",
		"date_range_dpid": "DP3",
		"date_range_id": 0,
		"date_range_technical_name": "psSelect Date Range",
		"date_range_name": "Select Date Range"
	},
	{
		"obr_report_id": "46316",
		"name": "Top Filesystem Utilization by Free Space Utilization",
		"device_params": "no_params",
		"format_params": "",
		"show_graph": false,
		"network_guid": false,
		"can_show": true,
		"is_device_report": false,
		"date_range_dpid": "DP1f",
		"date_range_id": 1,
		"date_range_technical_name": "psSelect Date Range",
		"date_range_name": "Select Date Range",
		"start_date_dpid": "DP20",
		"start_date_id": 2,
		"start_date_technical_name": "psSelect Start Date",
		"start_date_name": "Select Start Date",
		"end_date_dpid": "DP20",
		"end_date_id": 3,
		"end_date_technical_name": "psEnter End Date",
		"end_date_name": "Enter End Date",
		"company_guid_dpid": "DP21",
		"comapny_guid_id": 5,
		"company_guid_technical_name": "pmEnter value(s) for GUID",
		"company_guid_name": "Enter value(s) for GUID"	
	},
	{
		"obr_report_id": "70599",
		"name": "Detailed Network Usage Report",
		"device_params": "no_params",
		"format_params": "",
		"show_graph": false,
		"network_guid": false,
		"can_show": true,
		"is_device_report": false,
		"company_guid_dpid":"DP3",
		"comapny_guid_id":4,
		"company_guid_technical_name": "pmEnter value(s) for Organization GUID",
		"company_guid_name": "Enter value(s) for Organization GUID",
		"date_range_dpid": "DP1",
		"date_range_id": 0,
		"date_range_technical_name": "psSelect Date Range",
		"date_range_name": "Select Date Range",
		"start_date_dpid": "DP1",
		"start_date_id": 1,
		"start_date_technical_name": "psEnter Start Date",
		"start_date_name": "Enter Start Date"
	}
]